[
    {
        "model": "campaigns.campaign",
        "pk": 1,
        "fields": {
            "name": "Passive hit",
            "campaign_budget": 9000,
            "remaining_budget": 9000,
            "campaign_logo": "campaign_logos/default.png",
            "logo_position": 1,
            "type": "overlay",
            "status": "active",
            "description": "Nike Airmax descr",
            "brand": 1
        }
    },
    {
        "model": "campaigns.campaign",
        "pk": 2,
        "fields": {
            "name": "Innovat8",
            "campaign_budget": 13000,
            "remaining_budget": 13000,
            "campaign_logo": "campaign_logos/default.png",
            "logo_position": 1,
            "type": "audio",
            "status": "active",
            "description": "this is the decription of Nike Campaign 2",
            "brand": 1
        }
    },
    {
        "model": "campaigns.campaign",
        "pk": 3,
        "fields": {
            "name": "Sweat it",
            "campaign_budget": 17000,
            "remaining_budget": 17000,
            "campaign_logo": "campaign_logos/default.png",
            "logo_position": 1,
            "type": "overlay",
            "status": "active",
            "description": "this is the decription of Nike Campaign 3",
            "brand": 1
        }
    },
    {
        "model": "campaigns.campaign",
        "pk": 4,
        "fields": {
            "name": "Carbon Shoot",
            "campaign_budget": 7000,
            "remaining_budget": 7000,
            "campaign_logo": "campaign_logos/default.png",
            "logo_position": 1,
            "type": "overlay",
            "status": "active",
            "description": "this is the decription of Nike Campaign 4",
            "brand": 1
        }
    },
    {
        "model": "campaigns.campaign",
        "pk": 5,
        "fields": {
            "name": "Winters 19",
            "campaign_budget": 11900,
            "remaining_budget": 11900,
            "campaign_logo": "campaign_logos/default.png",
            "logo_position": 1,
            "type": "overlay",
            "status": "active",
            "description": "this is the decription of Logitech Campaign 1",
            "brand": 2
        }
    },
    {
        "model": "campaigns.campaign",
        "pk": 6,
        "fields": {
            "name": "Airmax Pro",
            "campaign_budget": 9000,
            "remaining_budget": 9000,
            "campaign_logo": "campaign_logos/default.png",
            "logo_position": 1,
            "type": "overlay",
            "status": "active",
            "description": "this is the decription of Logitech Campaign 2",
            "brand": 2
        }
    },
    {
        "model": "campaigns.campaign",
        "pk": 7,
        "fields": {
            "name": "Tech Minds",
            "campaign_budget": 8000,
            "remaining_budget": 8000,
            "campaign_logo": "campaign_logos/default.png",
            "logo_position": 1,
            "type": "overlay",
            "status": "active",
            "description": "this is the decription of Logitech Campaign 3",
            "brand": 2
        }
    },
    {
        "model": "campaigns.campaign",
        "pk": 8,
        "fields": {
            "name": "Final Whistle",
            "campaign_budget": 6500,
            "remaining_budget": 6500,
            "campaign_logo": "campaign_logos/default.png",
            "logo_position": 1,
            "type": "overlay",
            "status": "active",
            "description": "this is the decription of H&M Campaign 1",
            "brand": 3
        }
    },
    {
        "model": "campaigns.campaign",
        "pk": 9,
        "fields": {
            "name": "Soccer One",
            "campaign_budget": 6000,
            "remaining_budget": 6000,
            "campaign_logo": "campaign_logos/default.png",
            "logo_position": 1,
            "type": "overlay",
            "status": "active",
            "description": "this is the decription of H&M Campaign 2",
            "brand": 3
        }
    },
    {
        "model": "campaigns.campaign",
        "pk": 10,
        "fields": {
            "name": "Classic",
            "campaign_budget": 7000,
            "remaining_budget": 7000,
            "campaign_logo": "campaign_logos/default.png",
            "logo_position": 1,
            "type": "overlay",
            "status": "active",
            "description": "this is the decription of H&M Campaign 3",
            "brand": 3
        }
    },
    {
        "model": "campaigns.campaign",
        "pk": 11,
        "fields": {
            "name": "Clothing 11",
            "campaign_budget": 11000,
            "remaining_budget": 11000,
            "campaign_logo": "campaign_logos/default.png",
            "logo_position": 1,
            "type": "overlay",
            "status": "active",
            "description": "this is the decription of H&M Campaign 4",
            "brand": 3
        }
    },
    {
        "model": "campaigns.campaign",
        "pk": 12,
        "fields": {
            "name": "H&M Campaign 5",
            "campaign_budget": 6000,
            "remaining_budget": 6000,
            "campaign_logo": "campaign_logos/default.png",
            "logo_position": 1,
            "type": "overlay",
            "status": "active",
            "description": "this is the decription of H&M Campaign 5",
            "brand": 3
        }
    },
    {
        "model": "campaigns.campaign",
        "pk": 13,
        "fields": {
            "name": "H&M Campaign 6",
            "campaign_budget": 7000,
            "remaining_budget": 7000,
            "campaign_logo": "campaign_logos/default.png",
            "logo_position": 1,
            "type": "overlay",
            "status": "active",
            "description": "this is the decription of H&M Campaign 6",
            "brand": 3
        }
    },
    {
        "model": "campaigns.campaign",
        "pk": 14,
        "fields": {
            "name": "Adidas Campaign 1",
            "campaign_budget": 9400,
            "remaining_budget": 9400,
            "campaign_logo": "campaign_logos/default.png",
            "logo_position": 1,
            "type": "overlay",
            "status": "active",
            "description": "this is the decription of Adidas Campaign 1",
            "brand": 4
        }
    },
    {
        "model": "campaigns.campaign",
        "pk": 15,
        "fields": {
            "name": "Adidas Campaign 2",
            "campaign_budget": 10000,
            "remaining_budget": 10000,
            "campaign_logo": "campaign_logos/default.png",
            "logo_position": 1,
            "type": "overlay",
            "status": "active",
            "description": "this is the decription of Adidas Campaign 2",
            "brand": 4
        }
    },
    {
        "model": "campaigns.campaign",
        "pk": 16,
        "fields": {
            "name": "Adidas Campaign 3",
            "campaign_budget": 8500,
            "remaining_budget": 8500,
            "campaign_logo": "campaign_logos/default.png",
            "logo_position": 1,
            "type": "overlay",
            "status": "active",
            "description": "this is the decription of Adidas Campaign 3",
            "brand": 4
        }
    },
    {
        "model": "campaigns.campaign",
        "pk": 17,
        "fields": {
            "name": "Reebok Campaign 1",
            "campaign_budget": 9100,
            "remaining_budget": 9100,
            "campaign_logo": "campaign_logos/default.png",
            "logo_position": 1,
            "type": "overlay",
            "status": "active",
            "description": "this is the decription of Reebok Campaign 1",
            "brand": 5
        }
    },
    {
        "model": "campaigns.campaign",
        "pk": 18,
        "fields": {
            "name": "Reebok Campaign 2",
            "campaign_budget": 11000,
            "remaining_budget": 11000,
            "campaign_logo": "campaign_logos/default.png",
            "logo_position": 1,
            "type": "Audio",
            "status": "active",
            "description": "this is the decription of Reebok Campaign 2",
            "brand": 5
        }
    },
    {
        "model": "campaigns.campaign",
        "pk": 19,
        "fields": {
            "name": "Reebok Campaign 3",
            "campaign_budget": 10500,
            "remaining_budget": 10500,
            "campaign_logo": "campaign_logos/default.png",
            "logo_position": 1,
            "type": "Audio",
            "status": "active",
            "expiry": null,
            "start_date": null,
            "end_date": null,
            "remaining_budget": null,
            "description": "this is the decription of Reebok Campaign 3",
            "brand": 5
        }
    },
    {
        "model": "campaigns.campaign",
        "pk": 20,
        "fields": {
            "name": "Pierre Cardin Campaign 1",
            "campaign_budget": 9100,
            "remaining_budget": 9100,
            "campaign_logo": "campaign_logos/default.png",
            "logo_position": 1,
            "type": "Audio",
            "status": "active",
            "description": "this is the decription of Pierre Cardin Campaign 1",
            "brand": 6
        }
    },
    {
        "model": "campaigns.campaign",
        "pk": 21,
        "fields": {
            "name": "Pierre Cardin Campaign 2",
            "campaign_budget": 11000,
            "remaining_budget": 11000,
            "campaign_logo": "campaign_logos/default.png",
            "logo_position": 1,
            "type": "overlay",
            "status": "active",
            "description": "this is the decription of Pierre Cardin Campaign 2",
            "brand": 6
        }
    },
    {
        "model": "campaigns.campaign",
        "pk": 22,
        "fields": {
            "name": "Pierre Cardin Campaign 3",
            "campaign_budget": 10500,
            "remaining_budget": 10500,
            "campaign_logo": "campaign_logos/default.png",
            "logo_position": 1,
            "type": "overlay",
            "status": "active",
            "description": "this is the decription of Pierre Cardin Campaign 3",
            "brand": 6
        }
    },
    {
        "model": "campaigns.campaign",
        "pk": 23,
        "fields": {
            "name": "Pierre Cardin Campaign 4",
            "campaign_budget": 8600,
            "remaining_budget": 8600,
            "campaign_logo": "campaign_logos/default.png",
            "logo_position": 1,
            "type": "overlay",
            "status": "active",
            "description": "this is the decription of Pierre Cardin Campaign 4",
            "brand": 6
        }
    },
    {
        "model": "campaigns.campaign",
        "pk": 24,
        "fields": {
            "name": "McDonald's Campaign 1",
            "campaign_budget": 12000,
            "remaining_budget": 12000,
            "campaign_logo": "campaign_logos/default.png",
            "logo_position": 1,
            "type": "overlay",
            "status": "active",
            "description": "this is the decription of McDonald's Campaign 1",
            "brand": 7
        }
    },
    {
        "model": "campaigns.campaign",
        "pk": 25,
        "fields": {
            "name": "McDonald's Campaign 2",
            "campaign_budget": 12000,
            "remaining_budget": 12000,
            "campaign_logo": "campaign_logos/default.png",
            "logo_position": 1,
            "type": "overlay",
            "status": "active",
            "description": "this is the decription of McDonald's Campaign 2",
            "brand": 7
        }
    },
    {
        "model": "campaigns.campaign",
        "pk": 27,
        "fields": {
            "name": "Louis Vuitton's Campaign 1",
            "campaign_budget": 12000,
            "remaining_budget": 12000,
            "campaign_logo": "campaign_logos/default.png",
            "logo_position": 1,
            "type": "overlay",
            "status": "active",
            "description": "this is the decription of Louis Vuitton's Campaign 1",
            "brand": 7
        }
    },
    {
        "model": "campaigns.campaign",
        "pk": 28,
        "fields": {
            "name": "Louis Vuitton's Campaign 2",
            "campaign_budget": 12000,
            "remaining_budget": 12000,
            "campaign_logo": "campaign_logos/default.png",
            "logo_position": 1,
            "type": "overlay",
            "status": "active",
            "description": "this is the decription of Louis Vuitton's Campaign 2",
            "brand": 8
        }
    },
    {
        "model": "campaigns.campaign",
        "pk": 29,
        "fields": {
            "name": "Louis Vuitton's Campaign 3",
            "campaign_budget": 12000,
            "remaining_budget": 12000,
            "campaign_logo": "campaign_logos/default.png",
            "logo_position": 1,
            "type": "overlay",
            "status": "active",
            "description": "this is the decription of Louis Vuitton's Campaign 3",
            "brand": 8
        }
    },
    {
        "model": "campaigns.campaign",
        "pk": 30,
        "fields": {
            "name": "Walmart's Campaign 3",
            "campaign_budget": 12000,
            "remaining_budget": 12000,
            "campaign_logo": "campaign_logos/default.png",
            "logo_position": 1,
            "type": "overlay",
            "status": "active",
            "description": "this is the decription of Walmart's Campaign 3",
            "brand": 9
        }
    },
    {
        "model": "campaigns.campaign",
        "pk": 31,
        "fields": {
            "name": "Walmart's Campaign 2",
            "campaign_budget": 12000,
            "remaining_budget": 12000,
            "campaign_logo": "campaign_logos/default.png",
            "logo_position": 1,
            "type": "overlay",
            "status": "active",
            "description": "this is the decription of Walmart's Campaign 2",
            "brand": 9
        }
    },
    {
        "model": "campaigns.campaign",
        "pk": 32,
        "fields": {
            "name": "Walmart's Campaign 4",
            "campaign_budget": 6600,
            "remaining_budget": 6600,
            "campaign_logo": "campaign_logos/default.png",
            "logo_position": 1,
            "type": "overlay",
            "status": "active",
            "description": "this is the decription of Walmart's Campaign 4",
            "brand": 9
        }
    },
    {
        "model": "campaigns.campaign",
        "pk": 33,
        "fields": {
            "name": "American Express Campaign 1",
            "campaign_budget": 13000,
            "remaining_budget": 13000,
            "campaign_logo": "campaign_logos/default.png",
            "logo_position": 1,
            "type": "overlay",
            "status": "active",
            "description": "this is the decription of American Express Campaign 1",
            "brand": 10
        }
    },
    {
        "model": "campaigns.campaign",
        "pk": 34,
        "fields": {
            "name": "American Express Campaign 2",
            "campaign_budget": 13000,
            "remaining_budget": 13000,
            "campaign_logo": "campaign_logos/default.png",
            "logo_position": 1,
            "type": "overlay",
            "status": "active",
            "description": "this is the decription of American Express Campaign 2",
            "brand": 10
        }
    },
    {
        "model": "campaigns.campaign",
        "pk": 35,
        "fields": {
            "name": "American Express Campaign 3",
            "campaign_budget": 13200,
            "remaining_budget": 13200,
            "campaign_logo": "campaign_logos/default.png",
            "logo_position": 1,
            "type": "overlay",
            "status": "active",
            "description": "this is the decription of American Express Campaign 3",
            "brand": 10
        }
    },
    {
        "model": "campaigns.campaign",
        "pk": 36,
        "fields": {
            "name": "Hermès  Campaign 1",
            "campaign_budget": 4000,
            "remaining_budget": 4000,
            "campaign_logo": "campaign_logos/default.png",
            "logo_position": 1,
            "type": "overlay",
            "status": "active",
            "description": "this is the decription of Hermès  Campaign 1",
            "brand": 11
        }
    },
    {
        "model": "campaigns.campaign",
        "pk": 37,
        "fields": {
            "name": "Hermès  Campaign 2",
            "campaign_budget": 5000,
            "remaining_budget": 5000,
            "campaign_logo": "campaign_logos/default.png",
            "logo_position": 1,
            "type": "overlay",
            "status": "active",
            "description": "this is the decription of Hermès  Campaign 2",
            "brand": 11
        }
    },
    {
        "model": "campaigns.campaign",
        "pk": 38,
        "fields": {
            "name": "Hermès  Campaign 3",
            "campaign_budget": 5000,
            "remaining_budget": 5000,
            "campaign_logo": "campaign_logos/default.png",
            "logo_position": 1,
            "type": "overlay",
            "status": "active",
            "description": "this is the decription of Hermès  Campaign 3",
            "brand": 11
        }
    },
    {
        "model": "campaigns.campaign",
        "pk": 39,
        "fields": {
            "name": "Hermès  Campaign 4",
            "campaign_budget": 5000,
            "remaining_budget": 5000,
            "campaign_logo": "campaign_logos/default.png",
            "logo_position": 1,
            "type": "overlay",
            "status": "active",
            "description": "this is the decription of Hermès  Campaign 4",
            "brand": 11
        }
    },
    {
        "model": "campaigns.campaign",
        "pk": 40,
        "fields": {
            "name": "Hermès  Campaign 5",
            "campaign_budget": 5000,
            "remaining_budget": 5000,
            "campaign_logo": "campaign_logos/default.png",
            "logo_position": 1,
            "type": "overlay",
            "status": "active",
            "description": "this is the decription of Hermès  Campaign 5",
            "brand": 11
        }
    },
    {
        "model": "campaigns.campaign",
        "pk": 41,
        "fields": {
            "name": "L'Oréal Paris Campaign 1",
            "campaign_budget": 9000,
            "remaining_budget": 9000,
            "campaign_logo": "campaign_logos/default.png",
            "logo_position": 1,
            "type": "overlay",
            "status": "active",
            "description": "this is the decription of L'Oréal Paris Campaign 1",
            "brand": 12
        }
    },
    {
        "model": "campaigns.campaign",
        "pk": 42,
        "fields": {
            "name": "L'Oréal Paris Campaign 2",
            "campaign_budget": 9000,
            "remaining_budget": 9000,
            "campaign_logo": "campaign_logos/default.png",
            "logo_position": 1,
            "type": "overlay",
            "status": "active",
            "description": "this is the decription of L'Oréal Paris Campaign 2",
            "brand": 12
        }
    },
    {
        "model": "campaigns.campaign",
        "pk": 43,
        "fields": {
            "name": "L'Oréal Paris Campaign 3",
            "campaign_budget": 9000,
            "remaining_budget": 9000,
            "campaign_logo": "campaign_logos/default.png",
            "logo_position": 1,
            "type": "overlay",
            "status": "active",
            "description": "this is the decription of L'Oréal Paris Campaign 3",
            "brand": 12
        }
    },
    {
        "model": "campaigns.campaign",
        "pk": 44,
        "fields": {
            "name": "L'Oréal Paris Campaign 4",
            "campaign_budget": 9000,
            "remaining_budget": 9000,
            "campaign_logo": "campaign_logos/default.png",
            "logo_position": 1,
            "type": "overlay",
            "status": "active",
            "description": "this is the decription of L'Oréal Paris Campaign 4",
            "brand": 12
        }
    },
    {
        "model": "campaigns.campaign",
        "pk": 45,
        "fields": {
            "name": "Budweiser Campaign 1",
            "campaign_budget": 10000,
            "remaining_budget": 10000,
            "campaign_logo": "campaign_logos/default.png",
            "logo_position": 1,
            "type": "overlay",
            "status": "active",
            "description": "this is the decription of Budweiser Campaign 1",
            "brand": 13
        }
    },
    {
        "model": "campaigns.campaign",
        "pk": 46,
        "fields": {
            "name": "Budweiser Campaign 2",
            "campaign_budget": 10000,
            "remaining_budget": 10000,
            "campaign_logo": "campaign_logos/default.png",
            "logo_position": 1,
            "type": "overlay",
            "status": "active",
            "description": "this is the decription of Budweiser Campaign 2",
            "brand": 13
        }
    },
    {
        "model": "campaigns.campaign",
        "pk": 47,
        "fields": {
            "name": "Budweiser Campaign 3",
            "campaign_budget": 10000,
            "remaining_budget": 10000,
            "campaign_logo": "campaign_logos/default.png",
            "logo_position": 1,
            "type": "overlay",
            "status": "active",
            "description": "this is the decription of Budweiser Campaign 3",
            "brand": 13
        }
    },
    {
        "model": "campaigns.campaign",
        "pk": 48,
        "fields": {
            "name": "Budweiser Campaign 4",
            "campaign_budget": 13200,
            "remaining_budget": 13200,
            "campaign_logo": "campaign_logos/default.png",
            "logo_position": 1,
            "type": "overlay",
            "status": "active",
            "description": "this is the decription of Budweiser Campaign 4",
            "brand": 13
        }
    },
    {
        "model": "campaigns.campaign",
        "pk": 49,
        "fields": {
            "name": "Gucci Campaign 1",
            "campaign_budget": 11000,
            "remaining_budget": 11000,
            "campaign_logo": "campaign_logos/default.png",
            "logo_position": 1,
            "type": "overlay",
            "status": "active",
            "description": "this is the decription of Gucci Campaign 1",
            "brand": 14
        }
    },
    {
        "model": "campaigns.campaign",
        "pk": 50,
        "fields": {
            "name": "Gucci Campaign 2",
            "campaign_budget": 11000,
            "remaining_budget": 11000,
            "campaign_logo": "campaign_logos/default.png",
            "logo_position": 1,
            "type": "overlay",
            "status": "active",
            "description": "this is the decription of Gucci Campaign 2",
            "brand": 14
        }
    },
    {
        "model": "campaigns.campaign",
        "pk": 51,
        "fields": {
            "name": "Gucci Campaign 3",
            "campaign_budget": 11000,
            "remaining_budget": 11000,
            "campaign_logo": "campaign_logos/default.png",
            "logo_position": 1,
            "type": "overlay",
            "status": "active",
            "description": "this is the decription of Gucci Campaign 3",
            "brand": 14
        }
    },
    {
        "model": "campaigns.campaign",
        "pk": 52,
        "fields": {
            "name": "Gucci Campaign 4",
            "campaign_budget": 14200,
            "remaining_budget": 14200,
            "campaign_logo": "campaign_logos/default.png",
            "logo_position": 1,
            "type": "overlay",
            "status": "active",
            "description": "this is the decription of Gucci Campaign 4",
            "brand": 14
        }
    },
    {
        "model": "campaigns.campaign",
        "pk": 53,
        "fields": {
            "name": "LinkedIn Campaign 1",
            "campaign_budget": 7000,
            "remaining_budget": 7000,
            "campaign_logo": "campaign_logos/default.png",
            "logo_position": 1,
            "type": "overlay",
            "status": "active",
            "description": "this is the decription of LinkedIn Campaign 1",
            "brand": 15
        }
    },
    {
        "model": "campaigns.campaign",
        "pk": 54,
        "fields": {
            "name": "LinkedIn Campaign 2",
            "campaign_budget": 7000,
            "remaining_budget": 7000,
            "campaign_logo": "campaign_logos/default.png",
            "logo_position": 1,
            "type": "overlay",
            "status": "active",
            "description": "this is the decription of LinkedIn Campaign 2",
            "brand": 15
        }
    },
    {
        "model": "campaigns.campaign",
        "pk": 55,
        "fields": {
            "name": "LinkedIn Campaign 3",
            "campaign_budget": 7000,
            "remaining_budget": 7000,
            "campaign_logo": "campaign_logos/default.png",
            "logo_position": 1,
            "type": "overlay",
            "status": "active",
            "description": "this is the decription of LinkedIn Campaign 3",
            "brand": 15
        }
    },
    {
        "model": "campaigns.campaign",
        "pk": 56,
        "fields": {
            "name": "LinkedIn Campaign 4",
            "campaign_budget": 7000,
            "remaining_budget": 7000,
            "campaign_logo": "campaign_logos/default.png",
            "logo_position": 1,
            "type": "overlay",
            "status": "active",
            "description": "this is the decription of LinkedIn Campaign 4",
            "brand": 15
        }
    },
    {
        "model": "campaigns.campaign",
        "pk": 57,
        "fields": {
            "name": "LinkedIn Campaign 5",
            "campaign_budget": 7000,
            "remaining_budget": 7000,
            "campaign_logo": "campaign_logos/default.png",
            "logo_position": 1,
            "type": "overlay",
            "status": "active",
            "description": "this is the decription of LinkedIn Campaign 5",
            "brand": 15
        }
    },
    {
        "model": "campaigns.campaign",
        "pk": 58,
        "fields": {
            "name": "LinkedIn Campaign 6",
            "campaign_budget": 7000,
            "remaining_budget": 7000,
            "campaign_logo": "campaign_logos/default.png",
            "logo_position": 1,
            "type": "overlay",
            "status": "active",
            "description": "this is the decription of LinkedIn Campaign 6",
            "brand": 15
        }
    },
    {
        "model": "campaigns.campaign",
        "pk": 59,
        "fields": {
            "name": "LinkedIn Campaign 7",
            "campaign_budget": 9800,
            "remaining_budget": 9800,
            "campaign_logo": "campaign_logos/default.png",
            "logo_position": 1,
            "type": "overlay",
            "status": "active",
            "description": "this is the decription of LinkedIn Campaign 7",
            "brand": 15
        }
    },
    {
        "model": "campaigns.campaign",
        "pk": 60,
        "fields": {
            "name": "HDFC Bank Campaign 1",
            "campaign_budget": 4000,
            "remaining_budget": 4000,
            "campaign_logo": "campaign_logos/default.png",
            "logo_position": 1,
            "type": "overlay",
            "status": "active",
            "description": "this is the decription of HDFC Bank Campaign 1",
            "brand": 16
        }
    },
    {
        "model": "campaigns.campaign",
        "pk": 61,
        "fields": {
            "name": "HDFC Bank Campaign 2",
            "campaign_budget": 4000,
            "remaining_budget": 4000,
            "campaign_logo": "campaign_logos/default.png",
            "logo_position": 1,
            "type": "overlay",
            "status": "active",
            "description": "this is the decription of HDFC Bank Campaign 2",
            "brand": 16
        }
    },
    {
        "model": "campaigns.campaign",
        "pk": 62,
        "fields": {
            "name": "HDFC Bank Campaign 3",
            "campaign_budget": 6500,
            "remaining_budget": 6500,
            "campaign_logo": "campaign_logos/default.png",
            "logo_position": 1,
            "type": "overlay",
            "status": "active",
            "description": "this is the decription of HDFC Bank Campaign 3",
            "brand": 16
        }
    },
    {
        "model": "campaigns.campaign",
        "pk": 63,
        "fields": {
            "name": "Zara Campaign 1",
            "campaign_budget": 8000,
            "remaining_budget": 8000,
            "campaign_logo": "campaign_logos/default.png",
            "logo_position": 1,
            "type": "overlay",
            "status": "active",
            "description": "this is the decription of Zara Campaign 1",
            "brand": 17
        }
    },
    {
        "model": "campaigns.campaign",
        "pk": 64,
        "fields": {
            "name": "Zara Campaign 2",
            "campaign_budget": 8000,
            "remaining_budget": 8000,
            "campaign_logo": "campaign_logos/default.png",
            "logo_position": 1,
            "type": "overlay",
            "status": "active",
            "description": "this is the decription of Zara Campaign 2",
            "brand": 17
        }
    },
    {
        "model": "campaigns.campaign",
        "pk": 65,
        "fields": {
            "name": "Zara Campaign 3",
            "campaign_budget": 8800,
            "remaining_budget": 8800,
            "campaign_logo": "campaign_logos/default.png",
            "logo_position": 1,
            "type": "overlay",
            "status": "active",
            "description": "this is the decription of Zara Campaign 3",
            "brand": 17
        }
    },
    {
        "model": "campaigns.campaign",
        "pk": 66,
        "fields": {
            "name": "FedEx Campaign 1",
            "campaign_budget": 8000,
            "remaining_budget": 8000,
            "campaign_logo": "campaign_logos/default.png",
            "logo_position": 1,
            "type": "overlay",
            "status": "active",
            "description": "this is the decription of FedEx Campaign 1",
            "brand": 18
        }
    },
    {
        "model": "campaigns.campaign",
        "pk": 67,
        "fields": {
            "name": "FedEx Campaign 2",
            "campaign_budget": 8000,
            "remaining_budget": 8000,
            "campaign_logo": "campaign_logos/default.png",
            "logo_position": 1,
            "type": "overlay",
            "status": "active",
            "description": "this is the decription of FedEx Campaign 2",
            "brand": 18
        }
    },
    {
        "model": "campaigns.campaign",
        "pk": 68,
        "fields": {
            "name": "J.P. Morgan Campaign 1",
            "campaign_budget": 7000,
            "remaining_budget": 7000,
            "campaign_logo": "campaign_logos/default.png",
            "logo_position": 1,
            "type": "overlay",
            "status": "active",
            "description": "this is the decription of J.P. Morgan Campaign 1",
            "brand": 19
        }
    },
    {
        "model": "campaigns.campaign",
        "pk": 69,
        "fields": {
            "name": "J.P. Morgan Campaign 2",
            "campaign_budget": 7000,
            "remaining_budget": 7000,
            "campaign_logo": "campaign_logos/default.png",
            "logo_position": 1,
            "type": "overlay",
            "status": "active",
            "description": "this is the decription of J.P. Morgan Campaign 2",
            "brand": 19
        }
    },
    {
        "model": "campaigns.campaign",
        "pk": 70,
        "fields": {
            "name": "J.P. Morgan Campaign 3",
            "campaign_budget": 7000,
            "remaining_budget": 7000,
            "campaign_logo": "campaign_logos/default.png",
            "logo_position": 1,
            "type": "overlay",
            "status": "active",
            "description": "this is the decription of J.P. Morgan Campaign 3",
            "brand": 19
        }
    },
    {
        "model": "campaigns.campaign",
        "pk": 71,
        "fields": {
            "name": "J.P. Morgan Campaign 4",
            "campaign_budget": 7000,
            "remaining_budget": 7000,
            "campaign_logo": "campaign_logos/default.png",
            "logo_position": 1,
            "type": "overlay",
            "status": "active",
            "description": "this is the decription of J.P. Morgan Campaign 4",
            "brand": 19
        }
    },
    {
        "model": "campaigns.campaign",
        "pk": 72,
        "fields": {
            "name": "J.P. Morgan Campaign 5",
            "campaign_budget": 7000,
            "remaining_budget": 7000,
            "campaign_logo": "campaign_logos/default.png",
            "logo_position": 1,
            "type": "overlay",
            "status": "active",
            "description": "this is the decription of J.P. Morgan Campaign 5",
            "brand": 19
        }
    },
    {
        "model": "campaigns.campaign",
        "pk": 73,
        "fields": {
            "name": "J.P. Morgan Campaign 6",
            "campaign_budget": 6800,
            "remaining_budget": 6800,
            "campaign_logo": "campaign_logos/default.png",
            "logo_position": 1,
            "type": "overlay",
            "status": "active",
            "description": "this is the decription of J.P. Morgan Campaign 6",
            "brand": 19
        }
    },
    {
        "model": "campaigns.campaign",
        "pk": 74,
        "fields": {
            "name": "ExxonMobil Campaign 1",
            "campaign_budget": 8000,
            "remaining_budget": 8000,
            "campaign_logo": "campaign_logos/default.png",
            "logo_position": 1,
            "type": "overlay",
            "status": "active",
            "description": "this is the decription of ExxonMobil Campaign 1",
            "brand": 20
        }
    },
    {
        "model": "campaigns.campaign",
        "pk": 75,
        "fields": {
            "name": "ExxonMobil Campaign 2",
            "campaign_budget": 8000,
            "remaining_budget": 8000,
            "campaign_logo": "campaign_logos/default.png",
            "logo_position": 1,
            "type": "overlay",
            "status": "active",
            "description": "this is the decription of ExxonMobil Campaign 2",
            "brand": 20
        }
    },
    {
        "model": "campaigns.campaign",
        "pk": 76,
        "fields": {
            "name": "ExxonMobil Campaign 3",
            "campaign_budget": 8000,
            "remaining_budget": 8000,
            "campaign_logo": "campaign_logos/default.png",
            "logo_position": 1,
            "type": "overlay",
            "status": "active",
            "description": "this is the decription of ExxonMobil Campaign 3",
            "brand": 20
        }
    },
    {
        "model": "campaigns.campaign",
        "pk": 77,
        "fields": {
            "name": "ExxonMobil Campaign 4",
            "campaign_budget": 8000,
            "remaining_budget": 8000,
            "campaign_logo": "campaign_logos/default.png",
            "logo_position": 1,
            "type": "overlay",
            "status": "active",
            "description": "this is the decription of ExxonMobil Campaign 4",
            "brand": 20
        }
    },
    {
        "model": "campaigns.campaign",
        "pk": 78,
        "fields": {
            "name": "ExxonMobil Campaign 5",
            "campaign_budget": 9500,
            "remaining_budget": 9500,
            "campaign_logo": "campaign_logos/default.png",
            "logo_position": 1,
            "type": "overlay",
            "status": "active",
            "description": "this is the decription of ExxonMobil Campaign 5",
            "brand": 20
        }
    },
    {
        "model": "campaigns.campaign",
        "pk": 79,
        "fields": {
            "name": "Bank of America Campaign 1",
            "campaign_budget": 4000,
            "remaining_budget": 4000,
            "campaign_logo": "campaign_logos/default.png",
            "logo_position": 1,
            "type": "overlay",
            "status": "active",
            "description": "Bank of America description",
            "brand": 21
        }
    },
    {
        "model": "campaigns.campaign",
        "pk": 80,
        "fields": {
            "name": "Bank of America Campaign 2",
            "campaign_budget": 5000,
            "remaining_budget": 5000,
            "campaign_logo": "campaign_logos/default.png",
            "logo_position": 1,
            "type": "overlay",
            "status": "active",
            "description": "Bank of America Campaign 2",
            "brand": 21
        }
    },
    {
        "model": "campaigns.campaign",
        "pk": 81,
        "fields": {
            "name": "Subway Campaign 1",
            "campaign_budget": 7000,
            "remaining_budget": 7000,
            "campaign_logo": "campaign_logos/default.png",
            "logo_position": 1,
            "type": "overlay",
            "status": "active",
            "description": "Subway Campaign 1 desc",
            "brand": 22
        }
    },
    {
        "model": "campaigns.campaign",
        "pk": 82,
        "fields": {
            "name": "Nike",
            "campaign_budget": 8000,
            "remaining_budget": 8000,
            "campaign_logo": "campaign_logos/default.png",
            "logo_position": 1,
            "type": "overlay",
            "status": "active",
            "description": "xyz",
            "brand": 1
        }
    },
    {
        "model": "campaigns.campaign",
        "pk": 83,
        "fields": {
            "name": "Nike-2",
            "campaign_budget": 14000,
            "remaining_budget": 14000,
            "type": "audio",
            "status": "active",
            "description": "XYZ",
            "brand": 1
        }
    }
]